EESchema Schematic File Version 2
LIBS:STM32F072RxTx
LIBS:tlv274
LIBS:LD3985M3xR
LIBS:BAT54W
LIBS:tlv272
LIBS:REF303x
LIBS:LM2776
LIBS:logo_madresistor
LIBS:RT9728Bx
LIBS:box0-cache
EELAYER 25 0
EELAYER END
$Descr A4 11693 8268
encoding utf-8
Sheet 3 8
Title "Box0"
Date "03 April 2016"
Rev "0.3"
Comp "Mad Resistor"
Comment1 "Internal Power Supply"
Comment2 ""
Comment3 ""
Comment4 ""
$EndDescr
$Comp
L C C36
U 1 1 5538EEDE
P 4550 3500
F 0 "C36" H 4550 3600 40  0000 L CNN
F 1 "10nF" H 4556 3415 40  0000 L CNN
F 2 "Capacitors_SMD:C_0603" H 4588 3350 30  0001 C CNN
F 3 "~" H 4550 3500 60  0000 C CNN
	1    4550 3500
	1    0    0    -1  
$EndComp
$Comp
L GND #PWR022
U 1 1 5538EEE4
P 4550 3700
F 0 "#PWR022" H 4550 3700 30  0001 C CNN
F 1 "GND" H 4550 3630 30  0001 C CNN
F 2 "" H 4550 3700 60  0001 C CNN
F 3 "" H 4550 3700 60  0000 C CNN
	1    4550 3700
	1    0    0    -1  
$EndComp
$Comp
L GND #PWR023
U 1 1 5538EEEA
P 4050 3700
F 0 "#PWR023" H 4050 3700 30  0001 C CNN
F 1 "GND" H 4050 3630 30  0001 C CNN
F 2 "" H 4050 3700 60  0001 C CNN
F 3 "" H 4050 3700 60  0000 C CNN
	1    4050 3700
	1    0    0    -1  
$EndComp
$Comp
L C C35
U 1 1 5538EEF0
P 3400 3500
F 0 "C35" H 3400 3600 40  0000 L CNN
F 1 "100nF" H 3406 3415 40  0000 L CNN
F 2 "Capacitors_SMD:C_0603" H 3438 3350 30  0001 C CNN
F 3 "~" H 3400 3500 60  0000 C CNN
	1    3400 3500
	1    0    0    -1  
$EndComp
$Comp
L GND #PWR024
U 1 1 5538EEF6
P 3400 3700
F 0 "#PWR024" H 3400 3700 30  0001 C CNN
F 1 "GND" H 3400 3630 30  0001 C CNN
F 2 "" H 3400 3700 60  0001 C CNN
F 3 "" H 3400 3700 60  0000 C CNN
	1    3400 3700
	1    0    0    -1  
$EndComp
$Comp
L C C38
U 1 1 5538EEFC
P 4900 3500
F 0 "C38" H 4900 3600 40  0000 L CNN
F 1 "100nF" H 4906 3415 40  0000 L CNN
F 2 "Capacitors_SMD:C_0603" H 4938 3350 30  0001 C CNN
F 3 "~" H 4900 3500 60  0000 C CNN
	1    4900 3500
	1    0    0    -1  
$EndComp
$Comp
L GND #PWR025
U 1 1 5538EF08
P 4900 3700
F 0 "#PWR025" H 4900 3700 30  0001 C CNN
F 1 "GND" H 4900 3630 30  0001 C CNN
F 2 "" H 4900 3700 60  0001 C CNN
F 3 "" H 4900 3700 60  0000 C CNN
	1    4900 3700
	1    0    0    -1  
$EndComp
$Comp
L GND #PWR026
U 1 1 55392D82
P 4450 5900
F 0 "#PWR026" H 4450 5900 30  0001 C CNN
F 1 "GND" H 4450 5830 30  0001 C CNN
F 2 "" H 4450 5900 60  0001 C CNN
F 3 "" H 4450 5900 60  0000 C CNN
	1    4450 5900
	1    0    0    -1  
$EndComp
Text Notes 3600 5000 0    60   ~ 0
if Reference is not populated, \nReference can be derived from \nthe board 3.3V supply.
Text GLabel 5750 4950 2    60   Output ~ 0
VDDA
Text GLabel 2650 4700 0    60   Output ~ 0
VDD
Text GLabel 5800 3200 2    60   Output ~ 0
VDD
$Comp
L C C33
U 1 1 553E13CE
P 3150 3500
F 0 "C33" H 3150 3600 40  0000 L CNN
F 1 "1uF" H 3156 3415 40  0000 L CNN
F 2 "Capacitors_SMD:C_0603" H 3188 3350 30  0001 C CNN
F 3 "~" H 3150 3500 60  0000 C CNN
	1    3150 3500
	1    0    0    -1  
$EndComp
$Comp
L GND #PWR027
U 1 1 553E13D4
P 3150 3700
F 0 "#PWR027" H 3150 3700 30  0001 C CNN
F 1 "GND" H 3150 3630 30  0001 C CNN
F 2 "" H 3150 3700 60  0001 C CNN
F 3 "" H 3150 3700 60  0000 C CNN
	1    3150 3700
	1    0    0    -1  
$EndComp
$Comp
L C C41
U 1 1 553E1775
P 5150 3500
F 0 "C41" H 5150 3600 40  0000 L CNN
F 1 "1uF" H 5156 3415 40  0000 L CNN
F 2 "Capacitors_SMD:C_0603" H 5188 3350 30  0001 C CNN
F 3 "~" H 5150 3500 60  0000 C CNN
	1    5150 3500
	1    0    0    -1  
$EndComp
$Comp
L GND #PWR028
U 1 1 553E177B
P 5150 3700
F 0 "#PWR028" H 5150 3700 30  0001 C CNN
F 1 "GND" H 5150 3630 30  0001 C CNN
F 2 "" H 5150 3700 60  0001 C CNN
F 3 "" H 5150 3700 60  0000 C CNN
	1    5150 3700
	1    0    0    -1  
$EndComp
$Comp
L C C34
U 1 1 553E194E
P 3450 5700
F 0 "C34" H 3450 5800 40  0000 L CNN
F 1 "100nF" H 3456 5615 40  0000 L CNN
F 2 "Capacitors_SMD:C_0603" H 3488 5550 30  0001 C CNN
F 3 "~" H 3450 5700 60  0000 C CNN
	1    3450 5700
	1    0    0    -1  
$EndComp
$Comp
L C C37
U 1 1 553E19F1
P 5300 5700
F 0 "C37" H 5300 5800 40  0000 L CNN
F 1 "1uF" H 5306 5615 40  0000 L CNN
F 2 "Capacitors_SMD:C_0603" H 5338 5550 30  0001 C CNN
F 3 "~" H 5300 5700 60  0000 C CNN
	1    5300 5700
	1    0    0    -1  
$EndComp
$Comp
L GND #PWR029
U 1 1 553E1A0C
P 5300 5900
F 0 "#PWR029" H 5300 5900 30  0001 C CNN
F 1 "GND" H 5300 5830 30  0001 C CNN
F 2 "" H 5300 5900 60  0001 C CNN
F 3 "" H 5300 5900 60  0000 C CNN
	1    5300 5900
	1    0    0    -1  
$EndComp
$Comp
L GND #PWR030
U 1 1 553E1A12
P 3450 5900
F 0 "#PWR030" H 3450 5900 30  0001 C CNN
F 1 "GND" H 3450 5830 30  0001 C CNN
F 2 "" H 3450 5900 60  0001 C CNN
F 3 "" H 3450 5900 60  0000 C CNN
	1    3450 5900
	1    0    0    -1  
$EndComp
$Comp
L GND #PWR031
U 1 1 553E1A18
P 3700 5900
F 0 "#PWR031" H 3700 5900 30  0001 C CNN
F 1 "GND" H 3700 5830 30  0001 C CNN
F 2 "" H 3700 5900 60  0001 C CNN
F 3 "" H 3700 5900 60  0000 C CNN
	1    3700 5900
	1    0    0    -1  
$EndComp
$Comp
L REF303x U4
U 1 1 554315E0
P 4450 5350
AR Path="/554315E0" Ref="U4"  Part="1" 
AR Path="/55277C72/554315E0" Ref="U4"  Part="1" 
F 0 "U4" H 4450 5350 50  0000 C CNN
F 1 "REF303x" H 4450 5550 50  0000 C CNN
F 2 "TO_SOT_Packages_SMD:SOT-23" H 4450 5450 50  0001 C CNN
F 3 "~" H 4450 5350 50  0001 C CNN
	1    4450 5350
	1    0    0    -1  
$EndComp
$Comp
L LD3985M3xR U5
U 1 1 55433B63
P 4050 3250
AR Path="/55433B63" Ref="U5"  Part="1" 
AR Path="/55277C72/55433B63" Ref="U5"  Part="1" 
F 0 "U5" H 4300 3000 60  0000 C CNN
F 1 "LD3985M3xR" H 4050 3450 60  0000 C CNN
F 2 "TO_SOT_Packages_SMD:SOT-23-5" H 3950 3000 60  0001 C CNN
F 3 "~" H 4050 3250 60  0000 C CNN
	1    4050 3250
	1    0    0    -1  
$EndComp
$Comp
L PWR_FLAG #FLG032
U 1 1 554389A6
P 3450 5350
F 0 "#FLG032" H 3450 5445 30  0001 C CNN
F 1 "PWR_FLAG" H 3450 5530 30  0000 C CNN
F 2 "" H 3450 5350 60  0001 C CNN
F 3 "" H 3450 5350 60  0000 C CNN
	1    3450 5350
	1    0    0    -1  
$EndComp
$Comp
L C C32
U 1 1 553E197A
P 3700 5700
F 0 "C32" H 3700 5800 40  0000 L CNN
F 1 "1uF" H 3706 5615 40  0000 L CNN
F 2 "Capacitors_SMD:C_0603" H 3738 5550 30  0001 C CNN
F 3 "~" H 3700 5700 60  0000 C CNN
	1    3700 5700
	1    0    0    -1  
$EndComp
$Comp
L R R10
U 1 1 55F56D65
P 3100 4700
F 0 "R10" V 3180 4700 50  0000 C CNN
F 1 "0" V 3100 4700 50  0000 C CNN
F 2 "Resistors_SMD:R_0603" V 3030 4700 30  0001 C CNN
F 3 "" H 3100 4700 30  0000 C CNN
	1    3100 4700
	0    1    1    0   
$EndComp
$Comp
L R R14
U 1 1 55FFD0FD
P 3050 5350
F 0 "R14" V 3130 5350 50  0000 C CNN
F 1 "10" V 3050 5350 50  0000 C CNN
F 2 "Resistors_SMD:R_0603" V 2980 5350 30  0001 C CNN
F 3 "" H 3050 5350 30  0000 C CNN
	1    3050 5350
	0    1    1    0   
$EndComp
$Comp
L RT9728Bx U7
U 1 1 5605AB09
P 4100 1850
F 0 "U7" H 4100 1750 50  0000 C CNN
F 1 "RT9728Bx" H 4100 1950 50  0000 C CNN
F 2 "TO_SOT_Packages_SMD:SOT-23-6" H 4100 1850 50  0001 C CNN
F 3 "DOCUMENTATION" H 4100 1850 50  0001 C CNN
	1    4100 1850
	1    0    0    -1  
$EndComp
$Comp
L R R16
U 1 1 5605AB10
P 2450 1900
F 0 "R16" V 2530 1900 40  0000 C CNN
F 1 "4.7K" V 2457 1901 40  0000 C CNN
F 2 "Resistors_SMD:R_0603" V 2380 1900 30  0001 C CNN
F 3 "~" H 2450 1900 30  0000 C CNN
F 4 "PU_PD" V 2450 1900 60  0001 C CNN "GenericValue"
	1    2450 1900
	-1   0    0    -1  
$EndComp
$Comp
L R R20
U 1 1 5605AB17
P 2450 2200
F 0 "R20" V 2530 2200 40  0000 C CNN
F 1 "4.7K" V 2457 2201 40  0000 C CNN
F 2 "Resistors_SMD:R_0603" V 2380 2200 30  0001 C CNN
F 3 "~" H 2450 2200 30  0000 C CNN
F 4 "PU_PD" V 2450 2200 60  0001 C CNN "GenericValue"
	1    2450 2200
	-1   0    0    1   
$EndComp
$Comp
L GND #PWR033
U 1 1 5605AB1E
P 2450 2350
F 0 "#PWR033" H 2450 2350 30  0001 C CNN
F 1 "GND" H 2450 2280 30  0001 C CNN
F 2 "" H 2450 2350 60  0001 C CNN
F 3 "" H 2450 2350 60  0000 C CNN
	1    2450 2350
	1    0    0    -1  
$EndComp
$Comp
L GND #PWR034
U 1 1 5605AB24
P 4950 2350
F 0 "#PWR034" H 4950 2350 30  0001 C CNN
F 1 "GND" H 4950 2280 30  0001 C CNN
F 2 "" H 4950 2350 60  0001 C CNN
F 3 "" H 4950 2350 60  0000 C CNN
	1    4950 2350
	1    0    0    -1  
$EndComp
$Comp
L R R21
U 1 1 5605AB2A
P 5200 2100
F 0 "R21" V 5280 2100 40  0000 C CNN
F 1 "220K" V 5207 2101 40  0000 C CNN
F 2 "Resistors_SMD:R_0603" V 5130 2100 30  0001 C CNN
F 3 "~" H 5200 2100 30  0000 C CNN
F 4 "RT9728_ILIM(120mA)" V 5200 2100 60  0001 C CNN "GenericValue"
	1    5200 2100
	1    0    0    -1  
$EndComp
$Comp
L GND #PWR035
U 1 1 5605AB31
P 5200 2350
F 0 "#PWR035" H 5200 2350 30  0001 C CNN
F 1 "GND" H 5200 2280 30  0001 C CNN
F 2 "" H 5200 2350 60  0001 C CNN
F 3 "" H 5200 2350 60  0000 C CNN
	1    5200 2350
	1    0    0    -1  
$EndComp
Text GLabel 2650 1200 0    60   Input ~ 0
VBUS
$Comp
L C C21
U 1 1 5605AB3A
P 3050 1350
F 0 "C21" H 3050 1450 40  0000 L CNN
F 1 "1uF" H 3056 1265 40  0000 L CNN
F 2 "Capacitors_SMD:C_0603" H 3088 1200 30  0001 C CNN
F 3 "~" H 3050 1350 60  0000 C CNN
	1    3050 1350
	1    0    0    -1  
$EndComp
$Comp
L GND #PWR036
U 1 1 5605AB41
P 3050 1500
F 0 "#PWR036" H 3050 1500 30  0001 C CNN
F 1 "GND" H 3050 1430 30  0001 C CNN
F 2 "" H 3050 1500 60  0001 C CNN
F 3 "" H 3050 1500 60  0000 C CNN
	1    3050 1500
	1    0    0    -1  
$EndComp
$Comp
L C C22
U 1 1 5605AB47
P 5500 1950
F 0 "C22" H 5500 2050 40  0000 L CNN
F 1 "1uF" H 5506 1865 40  0000 L CNN
F 2 "Capacitors_SMD:C_0603" H 5538 1800 30  0001 C CNN
F 3 "~" H 5500 1950 60  0000 C CNN
	1    5500 1950
	1    0    0    -1  
$EndComp
$Comp
L GND #PWR037
U 1 1 5605AB4E
P 5500 2150
F 0 "#PWR037" H 5500 2150 30  0001 C CNN
F 1 "GND" H 5500 2080 30  0001 C CNN
F 2 "" H 5500 2150 60  0001 C CNN
F 3 "" H 5500 2150 60  0000 C CNN
	1    5500 2150
	1    0    0    -1  
$EndComp
Text Label 6050 1650 2    60   ~ 0
INT_VBUS
NoConn ~ 3350 1850
Text Label 2400 3200 0    60   ~ 0
INT_VBUS
Text Label 2400 5350 0    60   ~ 0
INT_VBUS
Connection ~ 2750 1200
Wire Wire Line
	2750 1650 2750 1200
Wire Wire Line
	2450 1650 2750 1650
Wire Wire Line
	2450 1750 2450 1650
Wire Wire Line
	2400 5350 2900 5350
Wire Notes Line
	2300 950  2300 2750
Wire Notes Line
	6100 950  2300 950 
Wire Notes Line
	6100 2750 6100 950 
Wire Notes Line
	2300 2750 6100 2750
Wire Wire Line
	5500 2100 5500 2150
Wire Wire Line
	5200 2350 5200 2250
Wire Wire Line
	5200 1850 5200 1950
Wire Wire Line
	5500 1650 5500 1800
Wire Wire Line
	3350 1200 3350 1650
Wire Wire Line
	2450 2050 3350 2050
Connection ~ 2450 2050
Wire Wire Line
	4850 2050 4950 2050
Wire Wire Line
	4950 2050 4950 2350
Wire Wire Line
	4850 1850 5200 1850
Wire Wire Line
	4850 1650 6050 1650
Wire Wire Line
	2650 1200 3350 1200
Connection ~ 5500 1650
Connection ~ 3050 1200
Wire Wire Line
	3450 5900 3450 5850
Connection ~ 5300 5350
Wire Wire Line
	5300 5550 5300 5350
Wire Wire Line
	2950 4700 2650 4700
Wire Notes Line
	2300 6200 6100 6200
Wire Notes Line
	2300 4350 6100 4350
Wire Notes Line
	2300 4350 2300 6200
Wire Notes Line
	2300 2900 6100 2900
Wire Notes Line
	2300 4200 6100 4200
Wire Notes Line
	2300 4200 2300 2900
Wire Wire Line
	3150 3700 3150 3650
Wire Wire Line
	3400 3700 3400 3650
Wire Wire Line
	5150 3650 5150 3700
Wire Wire Line
	4550 3350 4550 3300
Wire Wire Line
	4900 3700 4900 3650
Wire Wire Line
	4550 3700 4550 3650
Wire Wire Line
	5300 5900 5300 5850
Wire Wire Line
	3700 5900 3700 5850
Wire Notes Line
	6100 4350 6100 4700
Wire Notes Line
	6100 6200 6100 5900
Wire Wire Line
	5550 5350 5200 5350
Wire Notes Line
	6100 4200 6100 2900
Connection ~ 3700 5350
Wire Notes Line
	6100 6050 6100 4550
Wire Wire Line
	3700 5350 3700 5550
Wire Wire Line
	3450 5350 3450 5550
Wire Wire Line
	3200 5350 3700 5350
Connection ~ 3450 5350
Connection ~ 5150 3200
Wire Wire Line
	5150 3200 5150 3350
Connection ~ 3150 3200
Wire Wire Line
	3150 3200 3150 3350
Connection ~ 3550 3200
Connection ~ 5550 4950
Wire Wire Line
	5550 4950 5750 4950
Wire Wire Line
	5550 4700 5550 5350
Wire Wire Line
	3250 4700 5550 4700
Wire Wire Line
	4050 3700 4050 3650
Wire Wire Line
	3400 3200 3400 3350
Wire Wire Line
	4550 3200 5800 3200
Connection ~ 3400 3200
Wire Wire Line
	3550 3200 3550 3300
Connection ~ 4900 3200
Wire Wire Line
	4900 3200 4900 3350
Wire Wire Line
	2400 3200 3550 3200
Text Notes 3800 6150 0    60   ~ 0
OPTIONAL: NOT POPULATED
Text Notes 3150 4100 0    60   ~ 0
Internal power supply of the board.\nOnly used for Powering uC and pull-up resistor.
Text Notes 2900 2700 0    60   ~ 0
Board (+3.3V) power supply protection.\nCurrent limit = 120mA (+/- 10%)\n\nWARNING: This need to be enabled \n   so, this should be Enabled by default.
$EndSCHEMATC
