EESchema Schematic File Version 2
LIBS:STM32F072RxTx
LIBS:tlv274
LIBS:LD3985M3xR
LIBS:BAT54W
LIBS:tlv272
LIBS:REF303x
LIBS:LM2776
LIBS:logo_madresistor
LIBS:RT9728Bx
LIBS:box0-cache
EELAYER 25 0
EELAYER END
$Descr A4 11693 8268
encoding utf-8
Sheet 5 8
Title "Box0"
Date "03 April 2016"
Rev "0.3"
Comp "Mad Resistor"
Comment1 "External Power Supply"
Comment2 ""
Comment3 ""
Comment4 ""
$EndDescr
Text HLabel 1700 1800 0    60   Input ~ 0
EN_DIGITAL
Text HLabel 3000 1600 0    60   Output ~ 0
~FAULT_DIGITAL
$Comp
L RT9728Bx U40
U 1 1 553DF5D8
P 3750 1600
F 0 "U40" H 3750 1500 50  0000 C CNN
F 1 "RT9728Bx" H 3750 1700 50  0000 C CNN
F 2 "TO_SOT_Packages_SMD:SOT-23-6" H 3750 1600 50  0001 C CNN
F 3 "DOCUMENTATION" H 3750 1600 50  0001 C CNN
	1    3750 1600
	1    0    0    -1  
$EndComp
$Comp
L R R63
U 1 1 553DF5DE
P 1800 1650
F 0 "R63" V 1880 1650 40  0000 C CNN
F 1 "4.7K" V 1807 1651 40  0000 C CNN
F 2 "Resistors_SMD:R_0603" V 1730 1650 30  0001 C CNN
F 3 "~" H 1800 1650 30  0000 C CNN
F 4 "PU_PD" V 1800 1650 60  0001 C CNN "GenericValue"
	1    1800 1650
	-1   0    0    -1  
$EndComp
$Comp
L R R64
U 1 1 553DF5E4
P 1800 1950
F 0 "R64" V 1880 1950 40  0000 C CNN
F 1 "4.7K" V 1807 1951 40  0000 C CNN
F 2 "Resistors_SMD:R_0603" V 1730 1950 30  0001 C CNN
F 3 "~" H 1800 1950 30  0000 C CNN
F 4 "PU_PD" V 1800 1950 60  0001 C CNN "GenericValue"
	1    1800 1950
	-1   0    0    1   
$EndComp
$Comp
L GND #PWR045
U 1 1 553DF5EA
P 1800 2100
F 0 "#PWR045" H 1800 2100 30  0001 C CNN
F 1 "GND" H 1800 2030 30  0001 C CNN
F 2 "" H 1800 2100 60  0001 C CNN
F 3 "" H 1800 2100 60  0000 C CNN
	1    1800 2100
	1    0    0    -1  
$EndComp
$Comp
L GND #PWR046
U 1 1 553DF5F0
P 4600 2100
F 0 "#PWR046" H 4600 2100 30  0001 C CNN
F 1 "GND" H 4600 2030 30  0001 C CNN
F 2 "" H 4600 2100 60  0001 C CNN
F 3 "" H 4600 2100 60  0000 C CNN
	1    4600 2100
	1    0    0    -1  
$EndComp
$Comp
L R R67
U 1 1 553DF5FE
P 4850 1850
F 0 "R67" V 4930 1850 40  0000 C CNN
F 1 "220K" V 4857 1851 40  0000 C CNN
F 2 "Resistors_SMD:R_0603" V 4780 1850 30  0001 C CNN
F 3 "~" H 4850 1850 30  0000 C CNN
F 4 "RT9728_ILIM(120mA)" V 4850 1850 60  0001 C CNN "GenericValue"
	1    4850 1850
	1    0    0    -1  
$EndComp
$Comp
L GND #PWR047
U 1 1 553DF604
P 4850 2100
F 0 "#PWR047" H 4850 2100 30  0001 C CNN
F 1 "GND" H 4850 2030 30  0001 C CNN
F 2 "" H 4850 2100 60  0001 C CNN
F 3 "" H 4850 2100 60  0000 C CNN
	1    4850 2100
	1    0    0    -1  
$EndComp
Text Notes 2350 2350 0    60   ~ 0
+3.3V power supply protection\nCurrent limit = 120mA (+/- 10%)\n
$Comp
L C C93
U 1 1 553DF739
P 8150 1700
F 0 "C93" H 8150 1800 40  0000 L CNN
F 1 "10nF" H 8156 1615 40  0000 L CNN
F 2 "Capacitors_SMD:C_0603" H 8188 1550 30  0001 C CNN
F 3 "~" H 8150 1700 60  0000 C CNN
	1    8150 1700
	1    0    0    -1  
$EndComp
$Comp
L GND #PWR048
U 1 1 553DF73F
P 8150 1900
F 0 "#PWR048" H 8150 1900 30  0001 C CNN
F 1 "GND" H 8150 1830 30  0001 C CNN
F 2 "" H 8150 1900 60  0001 C CNN
F 3 "" H 8150 1900 60  0000 C CNN
	1    8150 1900
	1    0    0    -1  
$EndComp
$Comp
L GND #PWR049
U 1 1 553DF745
P 7650 1900
F 0 "#PWR049" H 7650 1900 30  0001 C CNN
F 1 "GND" H 7650 1830 30  0001 C CNN
F 2 "" H 7650 1900 60  0001 C CNN
F 3 "" H 7650 1900 60  0000 C CNN
	1    7650 1900
	1    0    0    -1  
$EndComp
$Comp
L C C92
U 1 1 553DF74B
P 6900 1700
F 0 "C92" H 6900 1800 40  0000 L CNN
F 1 "100nF" H 6906 1615 40  0000 L CNN
F 2 "Capacitors_SMD:C_0603" H 6938 1550 30  0001 C CNN
F 3 "~" H 6900 1700 60  0000 C CNN
	1    6900 1700
	1    0    0    -1  
$EndComp
$Comp
L GND #PWR050
U 1 1 553DF751
P 6900 1900
F 0 "#PWR050" H 6900 1900 30  0001 C CNN
F 1 "GND" H 6900 1830 30  0001 C CNN
F 2 "" H 6900 1900 60  0001 C CNN
F 3 "" H 6900 1900 60  0000 C CNN
	1    6900 1900
	1    0    0    -1  
$EndComp
Text GLabel 1250 950  0    60   Input ~ 0
VBUS
Text GLabel 1800 1500 1    60   Input ~ 0
VDD
$Comp
L C C71
U 1 1 553E26F8
P 2700 1100
F 0 "C71" H 2700 1200 40  0000 L CNN
F 1 "1uF" H 2706 1015 40  0000 L CNN
F 2 "Capacitors_SMD:C_0603" H 2738 950 30  0001 C CNN
F 3 "~" H 2700 1100 60  0000 C CNN
	1    2700 1100
	1    0    0    -1  
$EndComp
$Comp
L GND #PWR051
U 1 1 553E2711
P 2700 1250
F 0 "#PWR051" H 2700 1250 30  0001 C CNN
F 1 "GND" H 2700 1180 30  0001 C CNN
F 2 "" H 2700 1250 60  0001 C CNN
F 3 "" H 2700 1250 60  0000 C CNN
	1    2700 1250
	1    0    0    -1  
$EndComp
$Comp
L C C78
U 1 1 553E2B32
P 5150 1700
F 0 "C78" H 5150 1800 40  0000 L CNN
F 1 "1uF" H 5156 1615 40  0000 L CNN
F 2 "Capacitors_SMD:C_0603" H 5188 1550 30  0001 C CNN
F 3 "~" H 5150 1700 60  0000 C CNN
	1    5150 1700
	1    0    0    -1  
$EndComp
$Comp
L GND #PWR052
U 1 1 553E2B3A
P 5150 2100
F 0 "#PWR052" H 5150 2100 30  0001 C CNN
F 1 "GND" H 5150 2030 30  0001 C CNN
F 2 "" H 5150 2100 60  0001 C CNN
F 3 "" H 5150 2100 60  0000 C CNN
	1    5150 2100
	1    0    0    -1  
$EndComp
$Comp
L C C91
U 1 1 553E2F2A
P 6650 1700
F 0 "C91" H 6650 1800 40  0000 L CNN
F 1 "1uF" H 6656 1615 40  0000 L CNN
F 2 "Capacitors_SMD:C_0603" H 6688 1550 30  0001 C CNN
F 3 "~" H 6650 1700 60  0000 C CNN
	1    6650 1700
	1    0    0    -1  
$EndComp
$Comp
L GND #PWR053
U 1 1 553E2F30
P 6650 1900
F 0 "#PWR053" H 6650 1900 30  0001 C CNN
F 1 "GND" H 6650 1830 30  0001 C CNN
F 2 "" H 6650 1900 60  0001 C CNN
F 3 "" H 6650 1900 60  0000 C CNN
	1    6650 1900
	1    0    0    -1  
$EndComp
$Comp
L GND #PWR054
U 1 1 553E33B0
P 8750 1900
F 0 "#PWR054" H 8750 1900 30  0001 C CNN
F 1 "GND" H 8750 1830 30  0001 C CNN
F 2 "" H 8750 1900 60  0001 C CNN
F 3 "" H 8750 1900 60  0000 C CNN
	1    8750 1900
	1    0    0    -1  
$EndComp
$Comp
L C C95
U 1 1 553E33AA
P 8750 1700
F 0 "C95" H 8750 1800 40  0000 L CNN
F 1 "1uF" H 8756 1615 40  0000 L CNN
F 2 "Capacitors_SMD:C_0603" H 8788 1550 30  0001 C CNN
F 3 "~" H 8750 1700 60  0000 C CNN
	1    8750 1700
	1    0    0    -1  
$EndComp
Text GLabel 10100 1400 2    60   Output ~ 0
DIGITAL_EXT
$Comp
L GND #PWR055
U 1 1 553DF799
P 8500 1900
F 0 "#PWR055" H 8500 1900 30  0001 C CNN
F 1 "GND" H 8500 1830 30  0001 C CNN
F 2 "" H 8500 1900 60  0001 C CNN
F 3 "" H 8500 1900 60  0000 C CNN
	1    8500 1900
	1    0    0    -1  
$EndComp
$Comp
L C C94
U 1 1 553DF757
P 8500 1700
F 0 "C94" H 8500 1800 40  0000 L CNN
F 1 "100nF" H 8506 1615 40  0000 L CNN
F 2 "Capacitors_SMD:C_0603" H 8538 1550 30  0001 C CNN
F 3 "~" H 8500 1700 60  0000 C CNN
	1    8500 1700
	1    0    0    -1  
$EndComp
$Comp
L LD3985M3xR U41
U 1 1 55435FB1
P 7650 1450
AR Path="/55435FB1" Ref="U41"  Part="1" 
AR Path="/553DF358/55435FB1" Ref="U41"  Part="1" 
F 0 "U41" H 7900 1200 60  0000 C CNN
F 1 "LD3985M3xR" H 7650 1650 60  0000 C CNN
F 2 "TO_SOT_Packages_SMD:SOT-23-5" H 7550 1200 60  0001 C CNN
F 3 "~" H 7650 1450 60  0000 C CNN
	1    7650 1450
	1    0    0    -1  
$EndComp
Text HLabel 1700 4150 0    60   Input ~ 0
EN_ANALOG
Text HLabel 3000 3950 0    60   Output ~ 0
~FAULT_ANALOG
$Comp
L RT9728Bx U3
U 1 1 559DE75D
P 3750 3950
F 0 "U3" H 3750 3850 50  0000 C CNN
F 1 "RT9728Bx" H 3750 4050 50  0000 C CNN
F 2 "TO_SOT_Packages_SMD:SOT-23-6" H 3750 3950 50  0001 C CNN
F 3 "DOCUMENTATION" H 3750 3950 50  0001 C CNN
	1    3750 3950
	1    0    0    -1  
$EndComp
$Comp
L R R17
U 1 1 559DE763
P 1800 4000
F 0 "R17" V 1880 4000 40  0000 C CNN
F 1 "4.7K" V 1807 4001 40  0000 C CNN
F 2 "Resistors_SMD:R_0603" V 1730 4000 30  0001 C CNN
F 3 "~" H 1800 4000 30  0000 C CNN
F 4 "PU_PD" V 1800 4000 60  0001 C CNN "GenericValue"
	1    1800 4000
	-1   0    0    -1  
$EndComp
$Comp
L R R18
U 1 1 559DE769
P 1800 4300
F 0 "R18" V 1880 4300 40  0000 C CNN
F 1 "4.7K" V 1807 4301 40  0000 C CNN
F 2 "Resistors_SMD:R_0603" V 1730 4300 30  0001 C CNN
F 3 "~" H 1800 4300 30  0000 C CNN
F 4 "PU_PD" V 1800 4300 60  0001 C CNN "GenericValue"
	1    1800 4300
	-1   0    0    1   
$EndComp
$Comp
L GND #PWR056
U 1 1 559DE76F
P 1800 4450
F 0 "#PWR056" H 1800 4450 30  0001 C CNN
F 1 "GND" H 1800 4380 30  0001 C CNN
F 2 "" H 1800 4450 60  0001 C CNN
F 3 "" H 1800 4450 60  0000 C CNN
	1    1800 4450
	1    0    0    -1  
$EndComp
$Comp
L GND #PWR057
U 1 1 559DE775
P 4600 4450
F 0 "#PWR057" H 4600 4450 30  0001 C CNN
F 1 "GND" H 4600 4380 30  0001 C CNN
F 2 "" H 4600 4450 60  0001 C CNN
F 3 "" H 4600 4450 60  0000 C CNN
	1    4600 4450
	1    0    0    -1  
$EndComp
$Comp
L R R19
U 1 1 559DE77B
P 4850 4100
F 0 "R19" V 4930 4100 40  0000 C CNN
F 1 "140K" V 4857 4101 40  0000 C CNN
F 2 "Resistors_SMD:R_0603" V 4780 4100 30  0001 C CNN
F 3 "~" H 4850 4100 30  0000 C CNN
F 4 "RT9728_ILIM(190mA)" V 4850 4100 60  0001 C CNN "GenericValue"
	1    4850 4100
	1    0    0    -1  
$EndComp
$Comp
L GND #PWR058
U 1 1 559DE781
P 4850 4450
F 0 "#PWR058" H 4850 4450 30  0001 C CNN
F 1 "GND" H 4850 4380 30  0001 C CNN
F 2 "" H 4850 4450 60  0001 C CNN
F 3 "" H 4850 4450 60  0000 C CNN
	1    4850 4450
	1    0    0    -1  
$EndComp
Text Notes 2350 4650 0    60   ~ 0
+5V, -5V power supply protection\nCurrent limit = 190mA (+/- 10%)
Text GLabel 1200 3300 0    60   Input ~ 0
VBUS
Text GLabel 1800 3850 1    60   Input ~ 0
VDD
$Comp
L C C12
U 1 1 559DE78B
P 2700 3450
F 0 "C12" H 2700 3550 40  0000 L CNN
F 1 "4.7uF" H 2706 3365 40  0000 L CNN
F 2 "Capacitors_SMD:C_0805" H 2738 3300 30  0001 C CNN
F 3 "~" H 2700 3450 60  0000 C CNN
	1    2700 3450
	1    0    0    -1  
$EndComp
$Comp
L GND #PWR059
U 1 1 559DE791
P 2700 3600
F 0 "#PWR059" H 2700 3600 30  0001 C CNN
F 1 "GND" H 2700 3530 30  0001 C CNN
F 2 "" H 2700 3600 60  0001 C CNN
F 3 "" H 2700 3600 60  0000 C CNN
	1    2700 3600
	1    0    0    -1  
$EndComp
$Comp
L C C18
U 1 1 559DE797
P 5150 4000
F 0 "C18" H 5150 4100 40  0000 L CNN
F 1 "10uF" H 5156 3915 40  0000 L CNN
F 2 "Capacitors_SMD:C_1206" H 5188 3850 30  0001 C CNN
F 3 "~" H 5150 4000 60  0000 C CNN
	1    5150 4000
	1    0    0    -1  
$EndComp
$Comp
L GND #PWR060
U 1 1 559DE79D
P 5150 4450
F 0 "#PWR060" H 5150 4450 30  0001 C CNN
F 1 "GND" H 5150 4380 30  0001 C CNN
F 2 "" H 5150 4450 60  0001 C CNN
F 3 "" H 5150 4450 60  0000 C CNN
	1    5150 4450
	1    0    0    -1  
$EndComp
$Comp
L C C19
U 1 1 559DEA03
P 9550 5000
F 0 "C19" H 9550 5100 40  0000 L CNN
F 1 "10uF" H 9556 4915 40  0000 L CNN
F 2 "Capacitors_SMD:C_1206" H 9588 4850 30  0001 C CNN
F 3 "~" H 9550 5000 60  0000 C CNN
	1    9550 5000
	-1   0    0    -1  
$EndComp
$Comp
L GND #PWR061
U 1 1 559DEA10
P 9550 5150
F 0 "#PWR061" H 9550 5150 30  0001 C CNN
F 1 "GND" H 9550 5080 30  0001 C CNN
F 2 "" H 9550 5150 60  0001 C CNN
F 3 "" H 9550 5150 60  0000 C CNN
	1    9550 5150
	-1   0    0    -1  
$EndComp
Text GLabel 10000 3300 2    60   Output ~ 0
ANALOG_POS
Text GLabel 10000 4850 2    60   Output ~ 0
ANALOG_NEG
$Comp
L C C24
U 1 1 559E0978
P 9550 3450
F 0 "C24" H 9550 3550 40  0000 L CNN
F 1 "10uF" H 9556 3365 40  0000 L CNN
F 2 "Capacitors_SMD:C_1206" H 9588 3300 30  0001 C CNN
F 3 "~" H 9550 3450 60  0000 C CNN
	1    9550 3450
	1    0    0    -1  
$EndComp
$Comp
L C C23
U 1 1 559E097E
P 8850 3450
F 0 "C23" H 8850 3550 40  0000 L CNN
F 1 "100nF" H 8856 3365 40  0000 L CNN
F 2 "Capacitors_SMD:C_0603" H 8888 3300 30  0001 C CNN
F 3 "~" H 8850 3450 60  0000 C CNN
	1    8850 3450
	1    0    0    -1  
$EndComp
$Comp
L GND #PWR062
U 1 1 559E0B4D
P 9550 3600
F 0 "#PWR062" H 9550 3600 30  0001 C CNN
F 1 "GND" H 9550 3530 30  0001 C CNN
F 2 "" H 9550 3600 60  0001 C CNN
F 3 "" H 9550 3600 60  0000 C CNN
	1    9550 3600
	1    0    0    -1  
$EndComp
$Comp
L GND #PWR063
U 1 1 559E0B53
P 8850 3600
F 0 "#PWR063" H 8850 3600 30  0001 C CNN
F 1 "GND" H 8850 3530 30  0001 C CNN
F 2 "" H 8850 3600 60  0001 C CNN
F 3 "" H 8850 3600 60  0000 C CNN
	1    8850 3600
	1    0    0    -1  
$EndComp
$Comp
L PWR_FLAG #FLG064
U 1 1 55A1B7EB
P 9550 4850
F 0 "#FLG064" H 9550 4945 30  0001 C CNN
F 1 "PWR_FLAG" H 9550 5030 30  0000 C CNN
F 2 "" H 9550 4850 60  0001 C CNN
F 3 "" H 9550 4850 60  0000 C CNN
	1    9550 4850
	1    0    0    -1  
$EndComp
$Comp
L PWR_FLAG #FLG065
U 1 1 55A1BAC2
P 9550 3300
F 0 "#FLG065" H 9550 3395 30  0001 C CNN
F 1 "PWR_FLAG" H 9550 3480 30  0000 C CNN
F 2 "" H 9550 3300 60  0001 C CNN
F 3 "" H 9550 3300 60  0000 C CNN
	1    9550 3300
	1    0    0    -1  
$EndComp
$Comp
L C C13
U 1 1 55F099AE
P 7100 4100
F 0 "C13" H 7125 4200 50  0000 L CNN
F 1 "4.7uF" H 7125 4000 50  0000 L CNN
F 2 "Capacitors_SMD:C_0805" H 7138 3950 30  0001 C CNN
F 3 "" H 7100 4100 60  0000 C CNN
	1    7100 4100
	0    1    1    0   
$EndComp
$Comp
L C C14
U 1 1 55F0A046
P 7850 5250
F 0 "C14" H 7875 5350 50  0000 L CNN
F 1 "10uF" H 7875 5150 50  0000 L CNN
F 2 "Capacitors_SMD:C_1206" H 7888 5100 30  0001 C CNN
F 3 "" H 7850 5250 60  0000 C CNN
	1    7850 5250
	1    0    0    -1  
$EndComp
$Comp
L C C11
U 1 1 55F0A656
P 6350 5250
F 0 "C11" H 6375 5350 50  0000 L CNN
F 1 "10uF" H 6375 5150 50  0000 L CNN
F 2 "Capacitors_SMD:C_1206" H 6388 5100 30  0001 C CNN
F 3 "" H 6350 5250 60  0000 C CNN
	1    6350 5250
	1    0    0    -1  
$EndComp
$Comp
L GND #PWR066
U 1 1 55F0C891
P 7100 5450
F 0 "#PWR066" H 7100 5200 50  0001 C CNN
F 1 "GND" H 7100 5300 50  0000 C CNN
F 2 "" H 7100 5450 60  0000 C CNN
F 3 "" H 7100 5450 60  0000 C CNN
	1    7100 5450
	1    0    0    -1  
$EndComp
$Comp
L R R7
U 1 1 55F12608
P 9200 4850
F 0 "R7" V 9280 4850 50  0000 C CNN
F 1 "1" V 9200 4850 50  0000 C CNN
F 2 "Resistors_SMD:R_0603" V 9130 4850 30  0001 C CNN
F 3 "" H 9200 4850 30  0000 C CNN
	1    9200 4850
	0    1    1    0   
$EndComp
$Comp
L C C15
U 1 1 55F50C8D
P 5400 4000
F 0 "C15" H 5400 4100 40  0000 L CNN
F 1 "10uF" H 5406 3915 40  0000 L CNN
F 2 "Capacitors_SMD:C_1206" H 5438 3850 30  0001 C CNN
F 3 "~" H 5400 4000 60  0000 C CNN
	1    5400 4000
	1    0    0    -1  
$EndComp
$Comp
L GND #PWR067
U 1 1 55F50C93
P 5400 4450
F 0 "#PWR067" H 5400 4450 30  0001 C CNN
F 1 "GND" H 5400 4380 30  0001 C CNN
F 2 "" H 5400 4450 60  0001 C CNN
F 3 "" H 5400 4450 60  0000 C CNN
	1    5400 4450
	1    0    0    -1  
$EndComp
$Comp
L LM2776 U2
U 1 1 55F513C9
P 7100 4850
F 0 "U2" H 7100 4800 50  0000 C CNN
F 1 "LM2776" H 7100 4950 50  0000 C CNN
F 2 "TO_SOT_Packages_SMD:SOT-23-6" H 7100 4850 50  0001 C CNN
F 3 "DOCUMENTATION" H 7100 4850 50  0001 C CNN
	1    7100 4850
	1    0    0    -1  
$EndComp
$Comp
L R R15
U 1 1 55F53EB8
P 9200 3300
F 0 "R15" V 9280 3300 50  0000 C CNN
F 1 "1" V 9200 3300 50  0000 C CNN
F 2 "Resistors_SMD:R_0603" V 9130 3300 30  0001 C CNN
F 3 "" H 9200 3300 30  0000 C CNN
	1    9200 3300
	0    1    1    0   
$EndComp
$Comp
L BAT54SW U6
U 1 1 55F6DDE0
P 1750 6550
F 0 "U6" H 1750 6350 40  0000 C CNN
F 1 "BAT54SW" H 1750 6750 40  0000 C CNN
F 2 "SMD_Packages:SOT-323" H 1750 6650 60  0001 C CNN
F 3 "" V 1750 6550 60  0001 C CNN
	1    1750 6550
	1    0    0    -1  
$EndComp
Text GLabel 1900 6150 2    60   Output ~ 0
ANALOG_POS
Text GLabel 1900 6950 2    60   Output ~ 0
ANALOG_NEG
Wire Wire Line
	4500 3750 6000 3750
Connection ~ 9550 4850
Wire Wire Line
	7150 1400 7150 1500
Connection ~ 2700 3300
Connection ~ 5150 3750
Wire Wire Line
	1200 3300 3000 3300
Wire Wire Line
	4500 3950 4850 3950
Wire Wire Line
	4600 4150 4600 4450
Wire Wire Line
	4500 4150 4600 4150
Connection ~ 1800 4150
Wire Wire Line
	1700 4150 3000 4150
Wire Wire Line
	3000 3300 3000 3750
Wire Notes Line
	850  2550 10800 2550
Connection ~ 2700 950 
Wire Wire Line
	8500 1400 8500 1550
Wire Wire Line
	8150 1400 10100 1400
Connection ~ 8500 1400
Wire Wire Line
	8750 1400 8750 1550
Connection ~ 8750 1400
Connection ~ 6650 1400
Wire Wire Line
	6650 1400 6650 1550
Connection ~ 5150 1400
Wire Wire Line
	1250 950  3000 950 
Wire Wire Line
	7650 1900 7650 1850
Wire Wire Line
	6900 1400 6900 1550
Wire Wire Line
	4500 1400 7150 1400
Connection ~ 6900 1400
Wire Wire Line
	4500 1600 4850 1600
Wire Wire Line
	4600 1800 4600 2100
Wire Wire Line
	4500 1800 4600 1800
Connection ~ 1800 1800
Wire Wire Line
	1700 1800 3000 1800
Wire Wire Line
	3000 950  3000 1400
Wire Wire Line
	9350 3300 10000 3300
Connection ~ 9550 3300
Wire Wire Line
	5150 1400 5150 1550
Wire Wire Line
	4850 1600 4850 1700
Wire Wire Line
	4850 2100 4850 2000
Wire Wire Line
	6650 1850 6650 1900
Wire Wire Line
	6900 1850 6900 1900
Wire Wire Line
	8150 1500 8150 1550
Wire Wire Line
	8150 1850 8150 1900
Wire Wire Line
	8500 1850 8500 1900
Wire Wire Line
	8750 1850 8750 1900
Wire Notes Line
	850  2850 10800 2850
Wire Wire Line
	9350 4850 10000 4850
Wire Notes Line
	850  700  10800 700 
Wire Notes Line
	10800 700  10800 2550
Wire Notes Line
	850  700  850  2550
Wire Wire Line
	6900 4250 6900 4100
Wire Wire Line
	6900 4100 6950 4100
Wire Wire Line
	7300 4250 7300 4100
Wire Wire Line
	7300 4100 7250 4100
Wire Wire Line
	6350 4700 6350 5100
Connection ~ 6350 5000
Connection ~ 7100 5450
Wire Wire Line
	7850 4850 7850 5100
Wire Wire Line
	6350 5400 6350 5450
Wire Wire Line
	7850 5450 7850 5400
Wire Wire Line
	6350 5450 7850 5450
Wire Wire Line
	6000 5000 6350 5000
Wire Notes Line
	850  5800 10800 5800
Wire Wire Line
	7850 4850 9050 4850
Connection ~ 8850 3300
Wire Wire Line
	6000 3300 6000 5000
Connection ~ 6000 3750
Wire Notes Line
	850  5800 850  2850
Wire Notes Line
	10800 5800 10800 2850
Connection ~ 5400 3750
Wire Wire Line
	1750 6950 1900 6950
Wire Wire Line
	1750 6150 1900 6150
Wire Wire Line
	1750 6550 2050 6550
Wire Wire Line
	2050 6550 2050 6600
$Comp
L GND #PWR068
U 1 1 55F6EAC4
P 2050 6600
F 0 "#PWR068" H 2050 6350 50  0001 C CNN
F 1 "GND" H 2050 6450 50  0000 C CNN
F 2 "" H 2050 6600 60  0000 C CNN
F 3 "" H 2050 6600 60  0000 C CNN
	1    2050 6600
	1    0    0    -1  
$EndComp
Wire Notes Line
	850  5950 850  7700
Wire Notes Line
	850  7700 3600 7700
Wire Notes Line
	3600 7700 3600 5950
Wire Notes Line
	3600 5950 850  5950
Text Notes 950  7650 0    60   ~ 0
This diodes is placed because in v0.1 \n  the negative power supply (-5V) was having \n  problem starting up.\nReason: Leakage in OpAmp from +5V to -5V line, \n charging the -5V side OpAmp capacitor.\nOther minor benifits: Reverse polarity power protection.
Text Notes 3800 7650 0    51   ~ 0
RT9728 Specific Note:\n==============\n\nAssembly note:\nRT9728Bx has two variant (according to Enable): Active Low and Active High\nSo, the both variant of the IC can be placed by the following trick.\nFor Active low: Place the VDD-EN resistance only\nFor Active High: Place the GND-EN resistance only\n\nuC type detection:\nAlso, when the uC POR, it can detect the type of IC by the following procedure:\n[assumption: uC is the only driver of EN pin]\nMake the (uC EN) pin into Input mode and read the pin state.\nIf (uC EN) pin value is:\n Low: IC is active high\n High: IC is active low\n(determined by the external pull-up/pull-down see: Assembly note)\n\nAdded benifit:\nIf the uC is not driving the pin, \nthe pullup/pulldown determine the state of the pin.\nthat means, the IC is always disabled by default.
Wire Notes Line
	6200 3750 8200 3750
Wire Notes Line
	8200 3750 8200 5700
Wire Notes Line
	8200 5700 6200 5700
Wire Notes Line
	6200 5700 6200 3750
Text Notes 6600 3900 0    60   ~ 0
Generate -5V from +5V
Wire Notes Line
	2250 3150 5650 3150
Wire Notes Line
	5650 3150 5650 4700
Wire Notes Line
	5650 4700 2250 4700
Wire Notes Line
	2250 4700 2250 3150
Wire Notes Line
	2250 800  2250 2450
Wire Notes Line
	2250 2450 5400 2450
Wire Notes Line
	5400 2450 5400 800 
Wire Notes Line
	5400 800  2250 800 
Wire Wire Line
	6000 3300 9050 3300
Wire Wire Line
	5150 1850 5150 2100
Wire Wire Line
	4850 4450 4850 4250
Wire Wire Line
	5400 4450 5400 4150
Wire Wire Line
	5400 3850 5400 3750
Wire Wire Line
	5150 3850 5150 3750
Wire Wire Line
	5150 4450 5150 4150
Wire Notes Line
	6450 800  6450 2450
Wire Notes Line
	6450 2450 8950 2450
Wire Notes Line
	8950 2450 8950 800 
Wire Notes Line
	8950 800  6450 800 
Text Notes 6950 1050 0    60   ~ 0
Generate 3.3V.\nOnly used for External circuits.
$EndSCHEMATC
