(module LOGO (layer F.Cu)
  (at 0 0)
 (fp_text reference "G***" (at 0 0) (layer F.SilkS) hide
  (effects (font (thickness 0.3)))
  )
  (fp_text value "LOGO" (at 0.75 0) (layer F.SilkS) hide
  (effects (font (thickness 0.3)))
  )
  (fp_poly (pts (xy -11.454708 4.714143) (xy -11.373336 4.781720) (xy -11.271156 4.898969) (xy -11.140754 5.071756) (xy -11.009775 5.255846) (xy -10.881796 5.435454) (xy -10.767673 5.590282) (xy -10.675429 5.709870)
     (xy -10.613089 5.783752) (xy -10.590276 5.802923) (xy -10.556751 5.772407) (xy -10.488004 5.688297) (xy -10.392574 5.561754) (xy -10.279003 5.403936) (xy -10.216473 5.314462) (xy -10.093765 5.138396)
     (xy -9.982514 4.981046) (xy -9.892203 4.855660) (xy -9.832319 4.775483) (xy -9.817765 4.757615) (xy -9.721211 4.696257) (xy -9.614153 4.709724) (xy -9.534769 4.767385) (xy -9.512837 4.792514)
     (xy -9.495438 4.824914) (xy -9.482050 4.873222) (xy -9.472149 4.946077) (xy -9.465211 5.052117) (xy -9.460712 5.199981) (xy -9.458131 5.398308) (xy -9.456941 5.655735) (xy -9.456621 5.980902)
     (xy -9.456615 6.056923) (xy -9.456822 6.397085) (xy -9.457790 6.667731) (xy -9.460042 6.877501) (xy -9.464104 7.035033) (xy -9.470498 7.148965) (xy -9.479747 7.227936) (xy -9.492376 7.280585)
     (xy -9.508907 7.315549) (xy -9.529865 7.341468) (xy -9.534769 7.346462) (xy -9.612133 7.404424) (xy -9.671539 7.424615) (xy -9.740879 7.398747) (xy -9.808308 7.346462) (xy -9.834052 7.316342)
     (xy -9.853439 7.277353) (xy -9.867365 7.218886) (xy -9.876726 7.130331) (xy -9.882416 7.001079) (xy -9.885331 6.820522) (xy -9.886368 6.578049) (xy -9.886462 6.420654) (xy -9.886462 5.572999)
     (xy -10.162243 5.971095) (xy -10.275089 6.128403) (xy -10.379332 6.263662) (xy -10.463481 6.362599) (xy -10.516046 6.410940) (xy -10.516556 6.411218) (xy -10.582939 6.429869) (xy -10.653586 6.409857)
     (xy -10.736113 6.344471) (xy -10.838135 6.226999) (xy -10.967269 6.050730) (xy -11.031532 5.957387) (xy -11.288930 5.578844) (xy -11.300850 6.446326) (xy -11.305161 6.729617) (xy -11.309927 6.944925)
     (xy -11.316115 7.102419) (xy -11.324692 7.212271) (xy -11.336625 7.284648) (xy -11.352882 7.329720) (xy -11.374429 7.357658) (xy -11.388623 7.369212) (xy -11.479013 7.417836) (xy -11.561017 7.408444)
     (xy -11.636228 7.363784) (xy -11.660271 7.345520) (xy -11.679409 7.322508) (xy -11.694201 7.286350) (xy -11.705207 7.228652) (xy -11.712986 7.141016) (xy -11.718100 7.015046) (xy -11.721106 6.842347)
     (xy -11.722564 6.614521) (xy -11.723035 6.323172) (xy -11.723077 6.060764) (xy -11.722853 5.715563) (xy -11.721857 5.440078) (xy -11.719609 5.225874) (xy -11.715625 5.064512) (xy -11.709423 4.947557)
     (xy -11.700519 4.866572) (xy -11.688432 4.813119) (xy -11.672679 4.778763) (xy -11.652778 4.755066) (xy -11.648146 4.750763) (xy -11.584697 4.704532) (xy -11.522690 4.690369) (xy -11.454708 4.714143) )(layer F.SilkS) (width  0.010000)
  )
  (fp_poly (pts (xy -7.716857 5.503910) (xy -7.582243 5.544605) (xy -7.546984 5.560042) (xy -7.459173 5.598573) (xy -7.405024 5.596770) (xy -7.349957 5.552394) (xy -7.344463 5.546925) (xy -7.238080 5.480178)
     (xy -7.135183 5.487584) (xy -7.055601 5.557618) (xy -7.034520 5.599898) (xy -7.018761 5.665217) (xy -7.007617 5.763977) (xy -7.000385 5.906582) (xy -6.996362 6.103434) (xy -6.994842 6.364938)
     (xy -6.994769 6.456387) (xy -6.995207 6.729467) (xy -6.997159 6.935277) (xy -7.001579 7.084701) (xy -7.009424 7.188621) (xy -7.021649 7.257920) (xy -7.039210 7.303482) (xy -7.063062 7.336187)
     (xy -7.072923 7.346462) (xy -7.171034 7.414517) (xy -7.262104 7.406822) (xy -7.340938 7.343389) (xy -7.396981 7.291797) (xy -7.448299 7.285219) (xy -7.529601 7.320609) (xy -7.539945 7.325940)
     (xy -7.718874 7.386955) (xy -7.923103 7.409198) (xy -8.114857 7.389891) (xy -8.172852 7.372498) (xy -8.399357 7.249625) (xy -8.577419 7.075608) (xy -8.703810 6.863050) (xy -8.775299 6.624554)
     (xy -8.788241 6.380563) (xy -8.387931 6.380563) (xy -8.380329 6.559898) (xy -8.321509 6.725332) (xy -8.216717 6.862492) (xy -8.071200 6.957005) (xy -7.890205 6.994501) (xy -7.879172 6.994623)
     (xy -7.773764 6.983072) (xy -7.683429 6.938167) (xy -7.578157 6.844888) (xy -7.576326 6.843059) (xy -7.482983 6.736066) (xy -7.432294 6.631830) (xy -7.415660 6.502849) (xy -7.422125 6.350000)
     (xy -7.462280 6.198563) (xy -7.546538 6.058093) (xy -7.655498 5.959009) (xy -7.679494 5.946402) (xy -7.785717 5.916194) (xy -7.917217 5.901031) (xy -7.939609 5.900615) (xy -8.054242 5.912251)
     (xy -8.144385 5.958488) (xy -8.228497 6.037674) (xy -8.339069 6.201698) (xy -8.387931 6.380563) (xy -8.788241 6.380563) (xy -8.788657 6.372726) (xy -8.740653 6.120169) (xy -8.628058 5.879486)
     (xy -8.574996 5.803265) (xy -8.426000 5.660556) (xy -8.234190 5.551109) (xy -8.027357 5.487546) (xy -7.860938 5.478978) (xy -7.716857 5.503910) )(layer F.SilkS) (width  0.010000)
  )
  (fp_poly (pts (xy -4.661708 4.737662) (xy -4.651337 4.746775) (xy -4.629307 4.769528) (xy -4.611781 4.799187) (xy -4.598245 4.844243) (xy -4.588184 4.913186) (xy -4.581085 5.014505) (xy -4.576433 5.156692)
     (xy -4.573714 5.348237) (xy -4.572414 5.597630) (xy -4.572020 5.913362) (xy -4.572000 6.056923) (xy -4.572265 6.402221) (xy -4.573368 6.677771) (xy -4.575769 6.891979) (xy -4.579930 7.053251)
     (xy -4.586312 7.169992) (xy -4.595375 7.250609) (xy -4.607581 7.303506) (xy -4.623390 7.337089) (xy -4.643263 7.359764) (xy -4.643462 7.359944) (xy -4.748317 7.418646) (xy -4.849992 7.399642)
     (xy -4.918168 7.343389) (xy -4.974212 7.291797) (xy -5.025530 7.285219) (xy -5.106832 7.320609) (xy -5.117176 7.325940) (xy -5.300052 7.387959) (xy -5.508053 7.409177) (xy -5.703177 7.386900)
     (xy -5.754156 7.371097) (xy -5.986275 7.245991) (xy -6.170130 7.068766) (xy -6.300805 6.852334) (xy -6.373388 6.609606) (xy -6.379128 6.456080) (xy -5.975381 6.456080) (xy -5.941411 6.642097)
     (xy -5.913512 6.710169) (xy -5.808058 6.856051) (xy -5.664110 6.952638) (xy -5.501170 6.992253) (xy -5.338737 6.967223) (xy -5.302123 6.950809) (xy -5.133265 6.825959) (xy -5.025123 6.665946)
     (xy -4.979676 6.485782) (xy -4.998905 6.300483) (xy -5.084787 6.125063) (xy -5.179597 6.021416) (xy -5.335104 5.925893) (xy -5.493078 5.898308) (xy -5.643675 5.929423) (xy -5.777049 6.009996)
     (xy -5.883355 6.130790) (xy -5.952747 6.282565) (xy -5.975381 6.456080) (xy -6.379128 6.456080) (xy -6.382964 6.353492) (xy -6.324618 6.096902) (xy -6.278877 5.992492) (xy -6.130747 5.776202)
     (xy -5.940483 5.614652) (xy -5.720875 5.512371) (xy -5.484714 5.473889) (xy -5.244791 5.503735) (xy -5.080610 5.568146) (xy -4.965335 5.627757) (xy -4.954283 5.188670) (xy -4.948947 4.998446)
     (xy -4.941961 4.871752) (xy -4.929731 4.793988) (xy -4.908660 4.750555) (xy -4.875152 4.726853) (xy -4.836953 4.712279) (xy -4.740895 4.696353) (xy -4.661708 4.737662) )(layer F.SilkS) (width  0.010000)
  )
  (fp_poly (pts (xy -1.804710 4.697149) (xy -1.596888 4.724802) (xy -1.435956 4.778035) (xy -1.306902 4.862691) (xy -1.194718 4.984618) (xy -1.147868 5.050048) (xy -1.032407 5.284116) (xy -0.993207 5.526673)
     (xy -1.030206 5.769379) (xy -1.143346 6.003893) (xy -1.154869 6.020876) (xy -1.217313 6.115926) (xy -1.237899 6.173198) (xy -1.220919 6.217987) (xy -1.193767 6.250185) (xy -1.113420 6.377991)
     (xy -1.051475 6.549041) (xy -1.019617 6.728714) (xy -1.017715 6.771659) (xy -0.986622 6.928974) (xy -0.931163 7.034528) (xy -0.876806 7.123406) (xy -0.871691 7.194459) (xy -0.890758 7.246791)
     (xy -0.970449 7.339641) (xy -1.084134 7.374122) (xy -1.207818 7.344256) (xy -1.229833 7.331231) (xy -1.317977 7.257690) (xy -1.375186 7.163014) (xy -1.410925 7.026252) (xy -1.428529 6.891417)
     (xy -1.464632 6.676475) (xy -1.529172 6.527052) (xy -1.633563 6.432912) (xy -1.789220 6.383820) (xy -2.007558 6.369540) (xy -2.010521 6.369539) (xy -2.266462 6.369539) (xy -2.266462 6.832405)
     (xy -2.267982 7.034986) (xy -2.273877 7.174236) (xy -2.286151 7.264942) (xy -2.306806 7.321893) (xy -2.337847 7.359874) (xy -2.337923 7.359944) (xy -2.441231 7.418773) (xy -2.537836 7.400026)
     (xy -2.592559 7.353154) (xy -2.610743 7.325933) (xy -2.625212 7.283303) (xy -2.636379 7.216921) (xy -2.644656 7.118442) (xy -2.650458 6.979522) (xy -2.654197 6.791817) (xy -2.656286 6.546983)
     (xy -2.657139 6.236677) (xy -2.657231 6.046868) (xy -2.656811 5.697805) (xy -2.655293 5.418730) (xy -2.652290 5.201482) (xy -2.649835 5.119077) (xy -2.266462 5.119077) (xy -2.266462 5.503333)
     (xy -2.263647 5.670008) (xy -2.256075 5.806711) (xy -2.245049 5.895004) (xy -2.237154 5.917245) (xy -2.186334 5.929851) (xy -2.079489 5.935590) (xy -1.938529 5.933402) (xy -1.920471 5.932562)
     (xy -1.768275 5.922313) (xy -1.670078 5.904583) (xy -1.601731 5.870871) (xy -1.539085 5.812678) (xy -1.519933 5.791573) (xy -1.423885 5.640203) (xy -1.405945 5.489333) (xy -1.466068 5.340163)
     (xy -1.539631 5.251939) (xy -1.611834 5.184179) (xy -1.676007 5.144526) (xy -1.756446 5.125470) (xy -1.877447 5.119502) (xy -1.969477 5.119077) (xy -2.266462 5.119077) (xy -2.649835 5.119077)
     (xy -2.647416 5.037898) (xy -2.640284 4.919818) (xy -2.630507 4.839080) (xy -2.617699 4.787520) (xy -2.601473 4.756978) (xy -2.595824 4.750637) (xy -2.552080 4.723013) (xy -2.477419 4.704711)
     (xy -2.358244 4.694130) (xy -2.180956 4.689669) (xy -2.074432 4.689231) (xy -1.804710 4.697149) )(layer F.SilkS) (width  0.010000)
  )
  (fp_poly (pts (xy 0.753479 5.519220) (xy 0.972746 5.628978) (xy 1.036426 5.677070) (xy 1.153135 5.800778) (xy 1.250371 5.954824) (xy 1.322067 6.121263) (xy 1.362155 6.282153) (xy 1.364568 6.419552)
     (xy 1.323240 6.515516) (xy 1.320800 6.518031) (xy 1.267968 6.538049) (xy 1.152370 6.552297) (xy 0.969322 6.561097) (xy 0.714140 6.564769) (xy 0.636954 6.564923) (xy 0.384011 6.565909)
     (xy 0.201259 6.571083) (xy 0.080736 6.583773) (xy 0.014485 6.607304) (xy -0.005455 6.645004) (xy 0.012958 6.700199) (xy 0.061764 6.776215) (xy 0.077650 6.798677) (xy 0.207131 6.918783)
     (xy 0.377186 6.992306) (xy 0.563491 7.014946) (xy 0.741722 6.982405) (xy 0.837084 6.932925) (xy 0.951439 6.884386) (xy 1.066433 6.884174) (xy 1.154065 6.930389) (xy 1.172308 6.955692)
     (xy 1.190337 7.058112) (xy 1.142753 7.156288) (xy 1.042088 7.244976) (xy 0.900879 7.318934) (xy 0.731657 7.372920) (xy 0.546957 7.401691) (xy 0.359312 7.400005) (xy 0.191447 7.365965)
     (xy 0.019568 7.278491) (xy -0.147812 7.138205) (xy -0.288649 6.968159) (xy -0.380901 6.791407) (xy -0.391991 6.755771) (xy -0.414977 6.619086) (xy -0.424810 6.450788) (xy -0.422458 6.344986)
     (xy -0.396612 6.214591) (xy -0.039077 6.214591) (xy -0.001757 6.229721) (xy 0.103256 6.241545) (xy 0.265544 6.249319) (xy 0.474690 6.252298) (xy 0.488461 6.252308) (xy 0.732059 6.249406)
     (xy 0.899656 6.240597) (xy 0.993191 6.225722) (xy 1.016000 6.209323) (xy 0.984965 6.142050) (xy 0.905890 6.056050) (xy 0.799818 5.969135) (xy 0.687796 5.899121) (xy 0.613628 5.868716)
     (xy 0.417962 5.851454) (xy 0.237962 5.909968) (xy 0.081368 6.039694) (xy 0.009586 6.128930) (xy -0.033514 6.196946) (xy -0.039077 6.214591) (xy -0.396612 6.214591) (xy -0.372436 6.092628)
     (xy -0.264160 5.876400) (xy -0.108988 5.701502) (xy 0.081721 5.573135) (xy 0.296607 5.496498) (xy 0.524313 5.476793) (xy 0.753479 5.519220) )(layer F.SilkS) (width  0.010000)
  )
  (fp_poly (pts (xy 2.795661 5.515231) (xy 2.890989 5.551930) (xy 3.056274 5.638214) (xy 3.155529 5.720991) (xy 3.199586 5.810903) (xy 3.204308 5.859780) (xy 3.178744 5.981618) (xy 3.106560 6.044139)
     (xy 2.994518 6.045109) (xy 2.849381 5.982293) (xy 2.843791 5.978915) (xy 2.715085 5.923538) (xy 2.580822 5.902013) (xy 2.457961 5.911259) (xy 2.363460 5.948192) (xy 2.314278 6.009731)
     (xy 2.318853 6.074334) (xy 2.366018 6.114832) (xy 2.465693 6.160971) (xy 2.567456 6.194290) (xy 2.829477 6.276747) (xy 3.022766 6.363277) (xy 3.156706 6.460402) (xy 3.240679 6.574646)
     (xy 3.279628 6.689370) (xy 3.285531 6.890615) (xy 3.221182 7.074660) (xy 3.094280 7.229959) (xy 2.912521 7.344968) (xy 2.819761 7.379057) (xy 2.669957 7.414271) (xy 2.536862 7.417454)
     (xy 2.387838 7.386854) (xy 2.271676 7.349649) (xy 2.127702 7.285228) (xy 1.994786 7.201868) (xy 1.941364 7.156630) (xy 1.866664 7.072812) (xy 1.842084 7.008160) (xy 1.856863 6.932838)
     (xy 1.858715 6.927475) (xy 1.924602 6.835846) (xy 2.028202 6.804682) (xy 2.155630 6.835748) (xy 2.231034 6.880138) (xy 2.379899 6.953807) (xy 2.546633 6.987178) (xy 2.702381 6.977166)
     (xy 2.793234 6.940249) (xy 2.877901 6.866235) (xy 2.893342 6.797882) (xy 2.837374 6.732694) (xy 2.707810 6.668172) (xy 2.502466 6.601821) (xy 2.495306 6.599829) (xy 2.250383 6.515212)
     (xy 2.075665 6.414402) (xy 1.963981 6.292216) (xy 1.916783 6.181634) (xy 1.899238 5.988467) (xy 1.947663 5.816146) (xy 2.051096 5.671756) (xy 2.198575 5.562384) (xy 2.379137 5.495115)
     (xy 2.581819 5.477035) (xy 2.795661 5.515231) )(layer F.SilkS) (width  0.010000)
  )
  (fp_poly (pts (xy 4.111038 5.494757) (xy 4.158901 5.532176) (xy 4.179464 5.562944) (xy 4.194985 5.615251) (xy 4.206129 5.699023) (xy 4.213563 5.824183) (xy 4.217952 6.000655) (xy 4.219961 6.238364)
     (xy 4.220308 6.447692) (xy 4.219574 6.734439) (xy 4.216929 6.952965) (xy 4.211708 7.113196) (xy 4.203244 7.225056) (xy 4.190872 7.298468) (xy 4.173926 7.343358) (xy 4.158901 7.363209)
     (xy 4.057757 7.419462) (xy 3.952820 7.400657) (xy 3.894210 7.353154) (xy 3.872502 7.320264) (xy 3.856170 7.269171) (xy 3.844482 7.189566) (xy 3.836708 7.071136) (xy 3.832116 6.903571)
     (xy 3.829977 6.676558) (xy 3.829538 6.440903) (xy 3.830044 6.161393) (xy 3.832111 5.949605) (xy 3.836562 5.795108) (xy 3.844219 5.687473) (xy 3.855907 5.616272) (xy 3.872448 5.571075)
     (xy 3.894665 5.541452) (xy 3.901000 5.535441) (xy 4.008153 5.476356) (xy 4.111038 5.494757) )(layer F.SilkS) (width  0.010000)
  )
  (fp_poly (pts (xy 5.602348 5.493532) (xy 5.769871 5.550525) (xy 5.926465 5.630397) (xy 6.044796 5.720560) (xy 6.077971 5.760666) (xy 6.120543 5.838256) (xy 6.115882 5.897722) (xy 6.080055 5.959231)
     (xy 5.999651 6.037284) (xy 5.897602 6.049208) (xy 5.763850 5.995577) (xy 5.735483 5.978915) (xy 5.606777 5.923538) (xy 5.472514 5.902013) (xy 5.349653 5.911259) (xy 5.255152 5.948192)
     (xy 5.205970 6.009731) (xy 5.210545 6.074334) (xy 5.257710 6.114832) (xy 5.357386 6.160971) (xy 5.459148 6.194290) (xy 5.730536 6.281630) (xy 5.932204 6.377213) (xy 6.072551 6.487054)
     (xy 6.159978 6.617171) (xy 6.193457 6.720159) (xy 6.194442 6.893484) (xy 6.129597 7.059964) (xy 6.011088 7.207790) (xy 5.851082 7.325150) (xy 5.661743 7.400232) (xy 5.470769 7.421783)
     (xy 5.371674 7.408543) (xy 5.244095 7.378453) (xy 5.205897 7.367183) (xy 5.048213 7.300654) (xy 4.904249 7.209875) (xy 4.795585 7.110648) (xy 4.746966 7.031072) (xy 4.752728 6.936639)
     (xy 4.812785 6.852131) (xy 4.905042 6.803993) (xy 4.939518 6.800604) (xy 5.021690 6.821306) (xy 5.132330 6.871999) (xy 5.177692 6.898096) (xy 5.353782 6.974448) (xy 5.524803 6.990552)
     (xy 5.672327 6.945683) (xy 5.710671 6.919064) (xy 5.771005 6.839050) (xy 5.754966 6.763587) (xy 5.664315 6.695538) (xy 5.545338 6.650163) (xy 5.280342 6.563898) (xy 5.083917 6.481223)
     (xy 4.947205 6.395092) (xy 4.861349 6.298462) (xy 4.817492 6.184287) (xy 4.806607 6.062560) (xy 4.842076 5.858149) (xy 4.941645 5.688294) (xy 5.095594 5.561905) (xy 5.294199 5.487887)
     (xy 5.451231 5.472009) (xy 5.602348 5.493532) )(layer F.SilkS) (width  0.010000)
  )
  (fp_poly (pts (xy 7.150620 4.715006) (xy 7.216965 4.796512) (xy 7.255240 4.940019) (xy 7.268267 5.151796) (xy 7.268308 5.166849) (xy 7.269446 5.319267) (xy 7.276293 5.409700) (xy 7.293997 5.454315)
     (xy 7.327708 5.469279) (xy 7.365099 5.470769) (xy 7.471131 5.500536) (xy 7.535444 5.575366) (xy 7.556937 5.673552) (xy 7.534511 5.773390) (xy 7.467066 5.853173) (xy 7.386183 5.886810)
     (xy 7.268308 5.910385) (xy 7.268308 6.452577) (xy 7.270781 6.655731) (xy 7.277635 6.821885) (xy 7.288021 6.938357) (xy 7.301090 6.992470) (xy 7.304593 6.994769) (xy 7.373618 7.027848)
     (xy 7.434436 7.106153) (xy 7.463447 7.198289) (xy 7.463692 7.206427) (xy 7.429468 7.311610) (xy 7.345558 7.393634) (xy 7.245692 7.424469) (xy 7.162391 7.404591) (xy 7.059318 7.356293)
     (xy 7.048720 7.349995) (xy 6.973548 7.292367) (xy 6.918113 7.216539) (xy 6.879653 7.110836) (xy 6.855405 6.963586) (xy 6.842609 6.763114) (xy 6.838502 6.497748) (xy 6.838461 6.461400)
     (xy 6.838461 5.900615) (xy 6.742985 5.900615) (xy 6.646448 5.866548) (xy 6.565711 5.783104) (xy 6.526545 5.678425) (xy 6.525846 5.663515) (xy 6.559624 5.578021) (xy 6.641484 5.505673)
     (xy 6.742217 5.471190) (xy 6.753615 5.470769) (xy 6.796252 5.465456) (xy 6.821560 5.438803) (xy 6.834027 5.374742) (xy 6.838137 5.257201) (xy 6.838461 5.166849) (xy 6.850060 4.950765)
     (xy 6.886737 4.803329) (xy 6.951313 4.718271) (xy 7.046611 4.689321) (xy 7.053385 4.689231) (xy 7.150620 4.715006) )(layer F.SilkS) (width  0.010000)
  )
  (fp_poly (pts (xy 9.240230 5.505119) (xy 9.444702 5.589566) (xy 9.625336 5.726888) (xy 9.771664 5.913104) (xy 9.873218 6.144237) (xy 9.914700 6.353973) (xy 9.908757 6.627541) (xy 9.830029 6.874124)
     (xy 9.677632 7.098461) (xy 9.479204 7.274750) (xy 9.258479 7.384441) (xy 9.026506 7.424510) (xy 8.794332 7.391929) (xy 8.714154 7.362407) (xy 8.496331 7.228821) (xy 8.327970 7.046021)
     (xy 8.211785 6.827423) (xy 8.150487 6.586443) (xy 8.148529 6.454045) (xy 8.559994 6.454045) (xy 8.575769 6.630580) (xy 8.616953 6.761258) (xy 8.722041 6.886251) (xy 8.870881 6.966112)
     (xy 9.040204 6.995910) (xy 9.206742 6.970716) (xy 9.319312 6.910054) (xy 9.443389 6.768781) (xy 9.513199 6.595684) (xy 9.529278 6.409601) (xy 9.492159 6.229372) (xy 9.402379 6.073832)
     (xy 9.292890 5.979771) (xy 9.121562 5.913713) (xy 8.945109 5.910326) (xy 8.783225 5.965122) (xy 8.655607 6.073610) (xy 8.617123 6.133798) (xy 8.573782 6.276183) (xy 8.559994 6.454045)
     (xy 8.148529 6.454045) (xy 8.146789 6.336496) (xy 8.203404 6.090999) (xy 8.323044 5.863368) (xy 8.393330 5.775661) (xy 8.588471 5.608818) (xy 8.801646 5.510766) (xy 9.022389 5.477526)
     (xy 9.240230 5.505119) )(layer F.SilkS) (width  0.010000)
  )
  (fp_poly (pts (xy 10.897136 5.531254) (xy 10.921859 5.562762) (xy 10.982135 5.654755) (xy 11.163844 5.562762) (xy 11.357087 5.488759) (xy 11.518152 5.476560) (xy 11.640352 5.526333) (xy 11.665532 5.550106)
     (xy 11.718077 5.652209) (xy 11.698588 5.751189) (xy 11.612778 5.835943) (xy 11.491346 5.888685) (xy 11.306269 5.964833) (xy 11.167460 6.077453) (xy 11.070454 6.234945) (xy 11.010785 6.445713)
     (xy 10.983991 6.718158) (xy 10.981473 6.848231) (xy 10.979397 7.039689) (xy 10.972358 7.169480) (xy 10.957748 7.254057) (xy 10.932959 7.309871) (xy 10.902461 7.346462) (xy 10.807830 7.414114)
     (xy 10.716550 7.410338) (xy 10.646161 7.369215) (xy 10.620814 7.345717) (xy 10.601536 7.310226) (xy 10.587289 7.252299) (xy 10.577032 7.161495) (xy 10.569728 7.027372) (xy 10.564336 6.839487)
     (xy 10.559818 6.587399) (xy 10.558316 6.486517) (xy 10.554996 6.203401) (xy 10.554708 5.987774) (xy 10.558026 5.829010) (xy 10.565523 5.716482) (xy 10.577772 5.639565) (xy 10.595348 5.587632)
     (xy 10.608063 5.564995) (xy 10.696803 5.487023) (xy 10.801187 5.475719) (xy 10.897136 5.531254) )(layer F.SilkS) (width  0.010000)
  )
  (fp_poly (pts (xy 4.129097 4.724447) (xy 4.195712 4.816819) (xy 4.220308 4.943231) (xy 4.194602 5.074642) (xy 4.128392 5.161606) (xy 4.038040 5.194965) (xy 3.939906 5.165561) (xy 3.894210 5.125769)
     (xy 3.839773 5.020052) (xy 3.836166 4.900401) (xy 3.875889 4.790079) (xy 3.951440 4.712343) (xy 4.034978 4.689231) (xy 4.129097 4.724447) )(layer F.SilkS) (width  0.010000)
  )
  (fp_poly (pts (xy 0.346451 -7.392032) (xy 0.642343 -7.370466) (xy 0.889667 -7.336714) (xy 0.909511 -7.332926) (xy 1.506526 -7.176274) (xy 2.076307 -6.948946) (xy 2.613341 -6.655340) (xy 3.112119 -6.299854)
     (xy 3.567130 -5.886886) (xy 3.972862 -5.420833) (xy 4.323805 -4.906093) (xy 4.593850 -4.392649) (xy 4.703976 -4.126881) (xy 4.810475 -3.825027) (xy 4.903910 -3.517019) (xy 4.974845 -3.232787)
     (xy 4.999320 -3.106615) (xy 5.025200 -2.955936) (xy 5.048344 -2.825632) (xy 5.063500 -2.745154) (xy 5.081489 -2.657231) (xy 9.849990 -2.657231) (xy 9.991274 -2.798515) (xy 10.208763 -2.963074)
     (xy 10.459381 -3.060870) (xy 10.731437 -3.089165) (xy 11.013241 -3.045223) (xy 11.027240 -3.041122) (xy 11.185291 -2.965687) (xy 11.352177 -2.840780) (xy 11.503571 -2.687696) (xy 11.615142 -2.527730)
     (xy 11.616343 -2.525472) (xy 11.685170 -2.324970) (xy 11.708175 -2.089369) (xy 11.685942 -1.846455) (xy 11.619053 -1.624017) (xy 11.596438 -1.576800) (xy 11.507957 -1.437409) (xy 11.399821 -1.306738)
     (xy 11.343422 -1.253293) (xy 11.184632 -1.152198) (xy 10.990075 -1.070943) (xy 10.796228 -1.023131) (xy 10.707077 -1.016000) (xy 10.487849 -1.048775) (xy 10.259723 -1.139475) (xy 10.049812 -1.276660)
     (xy 10.011516 -1.309463) (xy 9.816363 -1.484923) (xy 5.083541 -1.484923) (xy 5.060383 -1.338385) (xy 5.018349 -1.107850) (xy 4.962060 -0.848251) (xy 4.898103 -0.586633) (xy 4.833064 -0.350042)
     (xy 4.777262 -0.175846) (xy 4.533159 0.397153) (xy 4.226949 0.932820) (xy 3.864295 1.426262) (xy 3.450861 1.872585) (xy 2.992309 2.266896) (xy 2.494304 2.604303) (xy 1.962509 2.879913)
     (xy 1.402586 3.088831) (xy 0.844633 3.221972) (xy 0.588937 3.253825) (xy 0.282978 3.272079) (xy -0.046876 3.276802) (xy -0.374260 3.268062) (xy -0.672807 3.245927) (xy -0.879231 3.217536)
     (xy -1.456002 3.074438) (xy -2.010795 2.859928) (xy -2.537810 2.579053) (xy -3.031249 2.236860) (xy -3.485314 1.838398) (xy -3.894207 1.388714) (xy -4.252128 0.892856) (xy -4.553280 0.355871)
     (xy -4.777262 -0.175846) (xy -4.837378 -0.364756) (xy -4.902552 -0.603901) (xy -4.966197 -0.866238) (xy -5.021727 -1.124719) (xy -5.060383 -1.338385) (xy -5.070830 -1.404491) (xy -4.683547 -1.404491)
     (xy -4.674833 -1.337330) (xy -4.652881 -1.221610) (xy -4.616830 -1.044206) (xy -4.610467 -1.013007) (xy -4.453689 -0.424437) (xy -4.232628 0.130975) (xy -3.952137 0.648763) (xy -3.617071 1.124459)
     (xy -3.232284 1.553597) (xy -2.802629 1.931708) (xy -2.332961 2.254326) (xy -1.828134 2.516983) (xy -1.293001 2.715211) (xy -0.732418 2.844545) (xy -0.371231 2.888412) (xy -0.201484 2.899988)
     (xy -0.051491 2.906653) (xy 0.054386 2.907454) (xy 0.078154 2.906004) (xy 0.164986 2.898147) (xy 0.301308 2.887408) (xy 0.458625 2.876023) (xy 0.468923 2.875312) (xy 0.884238 2.817039)
     (xy 1.323876 2.701908) (xy 1.768090 2.537605) (xy 2.197134 2.331818) (xy 2.591264 2.092231) (xy 2.722064 1.998235) (xy 3.185815 1.600484) (xy 3.596343 1.148638) (xy 3.949354 0.649543)
     (xy 4.240553 0.110047) (xy 4.465648 -0.463005) (xy 4.610467 -1.013007) (xy 4.648676 -1.200448) (xy 4.672570 -1.324288) (xy 4.682759 -1.397641) (xy 4.679855 -1.433620) (xy 4.664468 -1.445340)
     (xy 4.637208 -1.445915) (xy 4.630615 -1.445846) (xy 4.578471 -1.438934) (xy 4.572000 -1.433155) (xy 4.557164 -1.384320) (xy 4.515587 -1.274232) (xy 4.451667 -1.113323) (xy 4.369802 -0.912021)
     (xy 4.274390 -0.680758) (xy 4.169829 -0.429963) (xy 4.060515 -0.170066) (xy 3.950848 0.088501) (xy 3.845225 0.335309) (xy 3.748044 0.559927) (xy 3.663701 0.751926) (xy 3.596597 0.900875)
     (xy 3.551127 0.996344) (xy 3.536262 1.023311) (xy 3.391963 1.175316) (xy 3.207878 1.266605) (xy 3.047698 1.289539) (xy 2.939724 1.272806) (xy 2.819263 1.230413) (xy 2.710150 1.174062)
     (xy 2.636219 1.115459) (xy 2.618154 1.078606) (xy 2.590617 1.010912) (xy 2.559266 0.976697) (xy 2.538700 0.953896) (xy 2.515953 0.914956) (xy 2.489320 0.854170) (xy 2.457094 0.765828)
     (xy 2.417569 0.644221) (xy 2.369040 0.483640) (xy 2.309800 0.278375) (xy 2.238142 0.022717) (xy 2.152361 -0.289043) (xy 2.050751 -0.662614) (xy 1.931605 -1.103705) (xy 1.877365 -1.305116)
     (xy 1.785797 -1.644705) (xy 1.700395 -1.960160) (xy 1.623304 -2.243648) (xy 1.556672 -2.487333) (xy 1.502644 -2.683382) (xy 1.463367 -2.823959) (xy 1.440987 -2.901230) (xy 1.436646 -2.913918)
     (xy 1.420669 -2.881701) (xy 1.380824 -2.785449) (xy 1.320701 -2.634300) (xy 1.243889 -2.437389) (xy 1.153978 -2.203853) (xy 1.054557 -1.942831) (xy 1.039048 -1.901879) (xy 0.933601 -1.625236)
     (xy 0.832471 -1.363660) (xy 0.740247 -1.128733) (xy 0.661517 -0.932039) (xy 0.600872 -0.785163) (xy 0.562898 -0.699688) (xy 0.562412 -0.698706) (xy 0.426857 -0.494227) (xy 0.264498 -0.358068)
     (xy 0.086203 -0.290074) (xy -0.097162 -0.290088) (xy -0.274731 -0.357954) (xy -0.435638 -0.493515) (xy -0.569015 -0.696617) (xy -0.577848 -0.715088) (xy -0.610844 -0.792360) (xy -0.666543 -0.929992)
     (xy -0.740025 -1.115238) (xy -0.826365 -1.335350) (xy -0.920642 -1.577582) (xy -1.017934 -1.829187) (xy -1.113316 -2.077417) (xy -1.201868 -2.309526) (xy -1.278666 -2.512766) (xy -1.338788 -2.674389)
     (xy -1.377312 -2.781650) (xy -1.385954 -2.807703) (xy -1.417518 -2.864849) (xy -1.445777 -2.866318) (xy -1.462271 -2.822635) (xy -1.496627 -2.711391) (xy -1.546591 -2.540546) (xy -1.609910 -2.318058)
     (xy -1.684333 -2.051890) (xy -1.767606 -1.749999) (xy -1.857477 -1.420347) (xy -1.910464 -1.224292) (xy -2.006390 -0.869505) (xy -2.099632 -0.527007) (xy -2.187465 -0.206642) (xy -2.267164 0.081748)
     (xy -2.336002 0.328320) (xy -2.391256 0.523231) (xy -2.430199 0.656637) (xy -2.441080 0.692099) (xy -2.543471 0.944680) (xy -2.670240 1.125530) (xy -2.825312 1.238349) (xy -3.012612 1.286837)
     (xy -3.074739 1.289392) (xy -3.264554 1.251550) (xy -3.436994 1.143915) (xy -3.569987 0.988218) (xy -3.608135 0.915566) (xy -3.670694 0.780501) (xy -3.753250 0.593251) (xy -3.851392 0.364047)
     (xy -3.960706 0.103119) (xy -4.076780 -0.179302) (xy -4.126880 -0.302846) (xy -4.251420 -0.607360) (xy -4.364117 -0.875351) (xy -4.461868 -1.099892) (xy -4.541569 -1.274056) (xy -4.600118 -1.390913)
     (xy -4.634411 -1.443538) (xy -4.638868 -1.445846) (xy -4.664703 -1.445626) (xy -4.679883 -1.436215) (xy -4.683547 -1.404491) (xy -5.070830 -1.404491) (xy -5.083542 -1.484923) (xy -9.816363 -1.484923)
     (xy -10.011517 -1.309463) (xy -10.214350 -1.164167) (xy -10.440953 -1.063012) (xy -10.664212 -1.017439) (xy -10.707077 -1.016000) (xy -10.956298 -1.053087) (xy -11.192642 -1.156481) (xy -11.400501 -1.314386)
     (xy -11.564269 -1.515002) (xy -11.666921 -1.741600) (xy -11.716003 -2.033554) (xy -11.712178 -2.073610) (xy -11.136923 -2.073610) (xy -11.104327 -1.886611) (xy -11.010423 -1.741376) (xy -10.884783 -1.657087)
     (xy -10.769033 -1.614472) (xy -10.677229 -1.609840) (xy -10.568122 -1.643139) (xy -10.535083 -1.656641) (xy -10.388226 -1.750433) (xy -10.304195 -1.886417) (xy -10.278474 -2.070003) (xy -10.293782 -2.220885)
     (xy -10.348407 -2.328838) (xy -10.459250 -2.425762) (xy -10.471541 -2.434332) (xy -10.622626 -2.496579) (xy -10.780258 -2.493659) (xy -10.927275 -2.434875) (xy -11.046516 -2.329530) (xy -11.120821 -2.186927)
     (xy -11.136923 -2.073610) (xy -11.712178 -2.073610) (xy -11.689851 -2.307387) (xy -11.589660 -2.558873) (xy -11.416628 -2.783784) (xy -11.355792 -2.840978) (xy -11.129067 -2.992065) (xy -10.879512 -3.074587)
     (xy -10.620806 -3.088971) (xy -10.366627 -3.035643) (xy -10.130653 -2.915027) (xy -9.991274 -2.798515) (xy -9.849990 -2.657231) (xy -5.081489 -2.657231) (xy -5.073158 -2.697955) (xy -4.689231 -2.697955)
     (xy -4.652290 -2.676391) (xy -4.549590 -2.662254) (xy -4.394899 -2.657231) (xy -4.210214 -2.651056) (xy -4.058723 -2.627128) (xy -3.932285 -2.577343) (xy -3.822759 -2.493594) (xy -3.722004 -2.367776)
     (xy -3.621878 -2.191785) (xy -3.514241 -1.957516) (xy -3.391516 -1.658280) (xy -3.316905 -1.477585) (xy -3.250918 -1.330646) (xy -3.199140 -1.228936) (xy -3.167160 -1.183930) (xy -3.160929 -1.184786)
     (xy -3.142719 -1.237499) (xy -3.108948 -1.350974) (xy -3.063867 -1.510370) (xy -3.011725 -1.700847) (xy -2.991022 -1.778000) (xy -2.823659 -2.402752) (xy -2.671401 -2.966140) (xy -2.534752 -3.466372)
     (xy -2.414220 -3.901653) (xy -2.310310 -4.270192) (xy -2.223527 -4.570194) (xy -2.154377 -4.799867) (xy -2.103367 -4.957417) (xy -2.071001 -5.041052) (xy -2.070268 -5.042510) (xy -1.938123 -5.236187)
     (xy -1.777068 -5.359106) (xy -1.590475 -5.409556) (xy -1.389418 -5.387943) (xy -1.321986 -5.368514) (xy -1.261915 -5.345315) (xy -1.206395 -5.312773) (xy -1.152614 -5.265316) (xy -1.097762 -5.197370)
     (xy -1.039028 -5.103365) (xy -0.973603 -4.977728) (xy -0.898675 -4.814886) (xy -0.811433 -4.609267) (xy -0.709068 -4.355298) (xy -0.588769 -4.047408) (xy -0.447724 -3.680024) (xy -0.283124 -3.247573)
     (xy -0.201756 -3.033252) (xy -0.131521 -2.854202) (xy -0.069871 -2.708246) (xy -0.022265 -2.607478) (xy 0.005837 -2.563992) (xy 0.009934 -2.564329) (xy 0.028616 -2.608398) (xy 0.071231 -2.716074)
     (xy 0.134106 -2.877846) (xy 0.213567 -3.084206) (xy 0.305941 -3.325644) (xy 0.407555 -3.592650) (xy 0.430715 -3.653692) (xy 0.579566 -4.045011) (xy 0.704814 -4.369681) (xy 0.810081 -4.634316)
     (xy 0.898987 -4.845526) (xy 0.975152 -5.009923) (xy 1.042197 -5.134119) (xy 1.103743 -5.224726) (xy 1.163409 -5.288356) (xy 1.224817 -5.331619) (xy 1.291587 -5.361128) (xy 1.367339 -5.383495)
     (xy 1.379653 -5.386631) (xy 1.587486 -5.408723) (xy 1.767062 -5.361823) (xy 1.920370 -5.244340) (xy 2.049402 -5.054682) (xy 2.156149 -4.791259) (xy 2.166612 -4.757724) (xy 2.212113 -4.603037)
     (xy 2.275832 -4.378593) (xy 2.356171 -4.090236) (xy 2.451527 -3.743807) (xy 2.560301 -3.345149) (xy 2.680892 -2.900104) (xy 2.811699 -2.414516) (xy 2.951122 -1.894226) (xy 2.953465 -1.885461)
     (xy 3.014151 -1.662598) (xy 3.069222 -1.468201) (xy 3.115196 -1.313927) (xy 3.148596 -1.211436) (xy 3.165942 -1.172386) (xy 3.166294 -1.172308) (xy 3.187917 -1.206554) (xy 3.232245 -1.300679)
     (xy 3.293556 -1.441762) (xy 3.366126 -1.616881) (xy 3.395630 -1.690077) (xy 3.516955 -1.984456) (xy 3.559072 -2.075724) (xy 10.277231 -2.075724) (xy 10.304106 -1.887414) (xy 10.387633 -1.749890)
     (xy 10.526475 -1.658304) (xy 10.614163 -1.621058) (xy 10.672214 -1.607833) (xy 10.736846 -1.616795) (xy 10.832393 -1.642820) (xy 10.987325 -1.722902) (xy 11.091031 -1.857009) (xy 11.135739 -2.034214)
     (xy 11.136923 -2.071248) (xy 11.124863 -2.190893) (xy 11.077451 -2.285867) (xy 11.004061 -2.368061) (xy 10.852146 -2.476209) (xy 10.692885 -2.506994) (xy 10.530605 -2.460332) (xy 10.415360 -2.379644)
     (xy 10.327646 -2.291710) (xy 10.287490 -2.208170) (xy 10.277282 -2.090277) (xy 10.277231 -2.075724) (xy 3.559072 -2.075724) (xy 3.622320 -2.212783) (xy 3.720029 -2.383298) (xy 3.818387 -2.504240)
     (xy 3.925699 -2.583848) (xy 4.050269 -2.630363) (xy 4.200402 -2.652024) (xy 4.370281 -2.657085) (xy 4.696100 -2.657231) (xy 4.669723 -2.823308) (xy 4.604261 -3.149103) (xy 4.509865 -3.503113)
     (xy 4.395549 -3.856730) (xy 4.270332 -4.181343) (xy 4.179326 -4.379374) (xy 3.951526 -4.774860) (xy 3.670329 -5.169551) (xy 3.351536 -5.545080) (xy 3.010950 -5.883081) (xy 2.664370 -6.165187)
     (xy 2.609834 -6.203622) (xy 2.098448 -6.510563) (xy 1.561899 -6.746684) (xy 1.006770 -6.911404) (xy 0.439646 -7.004146) (xy -0.132891 -7.024329) (xy -0.704258 -6.971374) (xy -1.267871 -6.844702)
     (xy -1.817147 -6.643733) (xy -1.910215 -6.601393) (xy -2.428770 -6.315882) (xy -2.908142 -5.966302) (xy -3.342656 -5.559190) (xy -3.726639 -5.101083) (xy -4.054417 -4.598517) (xy -4.320317 -4.058029)
     (xy -4.468798 -3.653692) (xy -4.515334 -3.495431) (xy -4.564115 -3.310326) (xy -4.610515 -3.118439) (xy -4.649907 -2.939833) (xy -4.677661 -2.794571) (xy -4.689152 -2.702717) (xy -4.689231 -2.697955)
     (xy -5.073158 -2.697955) (xy -5.063501 -2.745154) (xy -5.047992 -2.827575) (xy -5.024756 -2.958483) (xy -4.999320 -3.106615) (xy -4.943496 -3.367193) (xy -4.860358 -3.666814) (xy -4.759343 -3.975547)
     (xy -4.649887 -4.263460) (xy -4.593850 -4.392649) (xy -4.299663 -4.945283) (xy -3.945272 -5.454388) (xy -3.536474 -5.915417) (xy -3.079069 -6.323824) (xy -2.578855 -6.675062) (xy -2.041631 -6.964585)
     (xy -1.473196 -7.187845) (xy -0.879348 -7.340297) (xy -0.820615 -7.351147) (xy -0.581542 -7.380969) (xy -0.290601 -7.397548) (xy 0.027100 -7.401147) (xy 0.346451 -7.392032) )(layer F.SilkS) (width  0.010000)
  )
)
